Data Visualization - 2. Finding your way in R
…
--

All programming languages gain power and convenience by having libraries or packages of functions that extend the core abilities of the language. In R, packages are loaded into your working environment using the .kjh-green[**`library()`**] function.

--

```r
## A package containing a dataset rather than functions
library(gapminder)

gapminder
```

```
## # A tibble: 1,704 × 6
##    country     continent  year lifeExp      pop gdpPercap
##    <fct>       <fct>     <int>   <dbl>    <int>     <dbl>
##  1 Afghanistan Asia       1952    28.8  8425333      779.
##  2 Afghanistan Asia       1957    30.3  9240934      821.
##  3 Afghanistan Asia       1962    32.0 10267083      853.
##  4 Afghanistan Asia       1967    34.0 11537966      836.
##  5 Afghanistan Asia       1972    36.1 13079460      740.
##  6 Afghanistan Asia       1977    38.4 14880372      786.
##  7 Afghanistan Asia       1982    39.9 12881816      978.
##  8 Afghanistan Asia       1987    40.8 13867957      852.
##  9 Afghanistan Asia       1992    41.7 16317921      649.
## 10 Afghanistan Asia       1997    41.8 22227415      635.
## # … with 1,694 more rows
```
…
]

.SMALL[

```r
## To load a package, usually at the start of your RMarkdown document or script file
library(palmerpenguins)
penguins
```

```
## # A tibble: 344 × 8
##    species island    bill_length_mm bill_depth_mm flipper_length_mm body_mass_g
##    <fct>   <fct>              <dbl>         <dbl>             <int>       <int>
##  1 Adelie  Torgersen           39.1          18.7               181        3750
##  2 Adelie  Torgersen           39.5          17.4               186        3800
##  3 Adelie  Torgersen           40.3          18                 195        3250
##  4 Adelie  Torgersen           NA            NA                  NA          NA
##  5 Adelie  Torgersen           36.7          19.3               193        3450
##  6 Adelie  Torgersen           39.3          20.6               190        3650
##  7 Adelie  Torgersen           38.9          17.8               181        3625
##  8 Adelie  Torgersen           39.2          19.6               195        4675
##  9 Adelie  Torgersen           34.1          18.1               193        3475
## 10 Adelie  Torgersen           42            20.2               190        4250
## # … with 334 more rows, and 2 more variables: sex <fct>, year <int>
```
…
---

# Tibbles are a .kjh-yellow[list] of .kjh-green[vectors] of various .kjh-pink[types]

.SMALL[

```r
gapminder # tibbles and data frames can contain vectors of different types
```

```
## # A tibble: 1,704 × 6
##    country     continent  year lifeExp      pop gdpPercap
##    <fct>       <fct>     <int>   <dbl>    <int>     <dbl>
##  1 Afghanistan Asia       1952    28.8  8425333      779.
##  2 Afghanistan Asia       1957    30.3  9240934      821.
##  3 Afghanistan Asia       1962    32.0 10267083      853.
##  4 Afghanistan Asia       1967    34.0 11537966      836.
##  5 Afghanistan Asia       1972    36.1 13079460      740.
##  6 Afghanistan Asia       1977    38.4 14880372      786.
##  7 Afghanistan Asia       1982    39.9 12881816      978.
##  8 Afghanistan Asia       1987    40.8 13867957      852.
##  9 Afghanistan Asia       1992    41.7 16317921      649.
## 10 Afghanistan Asia       1997    41.8 22227415      635.
## # … with 1,694 more rows
```
…
```
## [1] "tbl_df"     "tbl"        "data.frame"
```
 
]
---

# All of this will matter later on

```r
gss_sm
```

```
## # A tibble: 2,867 × 32
##     year    id ballot       age childs sibs   degree race  sex   region income16
##    <dbl> <dbl> <labelled> <dbl>  <dbl> <labe> <fct>  <fct> <fct> <fct>  <fct>   
##  1  2016     1 1             47      3 2      Bache… White Male  New E… $170000…
##  2  2016     2 2             61      0 3      High … White Male  New E… $50000 …
##  3  2016     3 3             72      2 3      Bache… White Male  New E… $75000 …
##  4  2016     4 1             43      4 3      High … White Fema… New E… $170000…
##  5  2016     5 3             55      2 2      Gradu… White Fema… New E… $170000…
##  6  2016     6 2             53      2 2      Junio… White Fema… New E… $60000 …
##  7  2016     7 1             50      2 2      High … White Male  New E… $170000…
##  8  2016     8 3             23      3 6      High … Other Fema… Middl… $30000 …
##  9  2016     9 1             45      3 5      High … Black Male  Middl… $60000 …
## 10  2016    10 3             71      4 1      Junio… White Male  Middl… $60000 …
## # … with 2,857 more rows, and 21 more variables: relig <fct>, marital <fct>,
## #   padeg <fct>, madeg <fct>, partyid <fct>, polviews <fct>, happy <fct>,
## #   partners <fct>, grass <fct>, zodiac <fct>, pres12 <labelled>,
## #   wtssall <dbl>, income_rc <fct>, agegrp <fct>, ageq <fct>, siblings <fct>,
## #   kids <fct>, religion <fct>, bigregion <fct>, partners_rc <fct>, obama <dbl>
```
…
